1;http://www.dcdental.com/Supplies/Acrylics/Accessories?page=1
2;http://www.dcdental.com/Supplies/Acrylics/Custom-Tray-Material
3;http://www.dcdental.com/Supplies/Acrylics/Reline-Materials?page=1
4;http://www.dcdental.com/Supplies/Acrylics/Repair-Acrylics?page=1
5;http://www.dcdental.com/Supplies/Acrylics/Resin-Pattern-Materials?page=1
6;http://www.dcdental.com/Supplies/Acrylics/Temporary-Crown-and-Bridge-Material?page=1
7;http://www.dcdental.com/Supplies/Acrylics/Tissue-Conditioner
8;http://www.dcdental.com/Supplies/Alloys/Amalgam-Accessories
9;http://www.dcdental.com/Supplies/Alloys/Amalgam-Capsules
10;http://www.dcdental.com/Supplies/Alloys/Amalgamators
